{
  "globalDependencies": {
    //"express": "registry:dt/express#4.0.0+20160708185218",
    "node": "registry:env/node#6.0.0+20160902022231",
    "socket.io": "registry:dt/socket.io#1.4.4+20160909205835"
  },
  "dependencies": {
    "express": "registry:npm/express#4.14.0+20160911114220",
    "serve-static": "registry:npm/serve-static#1.11.1+20160810053450"
  }
}
